Getting familiar with ggplot2 extensions
…
---

count: false

.panel1-ggridges-demo1-auto[

```r
*fatal_crash_monthly_counts
```
]
 
.panel2-ggridges-demo1-auto[

```
  # A tibble: 120 x 3
     crash_year crash_month fatal_crash_freq
          <dbl> <chr>                  <dbl>
   1       2010 Jan                     2101
   2       2010 Feb                     1830
   3       2010 Mar                     2213
   4       2010 Apr                     2552
   5       2010 May                     2704
   6       2010 Jun                     2569
   7       2010 Jul                     2852
   8       2010 Aug                     2825
   9       2010 Sep                     2799
  10       2010 Oct                     2827
  # ... with 110 more rows
```
…
